('C:\\Users\\pc\\Desktop\\PyQt\\Curso\\Practicas\\SEP\\build\\main\\out00-PYZ.pyz',
 [('ntpath', 'c:\\users\\pc\\anaconda3\\lib\\ntpath.py', 'PYMODULE'),
  ('_strptime', 'c:\\users\\pc\\anaconda3\\lib\\_strptime.py', 'PYMODULE'),
  ('datetime', 'c:\\users\\pc\\anaconda3\\lib\\datetime.py', 'PYMODULE'),
  ('stringprep', 'c:\\users\\pc\\anaconda3\\lib\\stringprep.py', 'PYMODULE'),
  ('fnmatch', 'c:\\users\\pc\\anaconda3\\lib\\fnmatch.py', 'PYMODULE'),
  ('struct', 'c:\\users\\pc\\anaconda3\\lib\\struct.py', 'PYMODULE'),
  ('_compat_pickle',
   'c:\\users\\pc\\anaconda3\\lib\\_compat_pickle.py',
   'PYMODULE'),
  ('__future__', 'c:\\users\\pc\\anaconda3\\lib\\__future__.py', 'PYMODULE'),
  ('difflib', 'c:\\users\\pc\\anaconda3\\lib\\difflib.py', 'PYMODULE'),
  ('ast', 'c:\\users\\pc\\anaconda3\\lib\\ast.py', 'PYMODULE'),
  ('inspect', 'c:\\users\\pc\\anaconda3\\lib\\inspect.py', 'PYMODULE'),
  ('cmd', 'c:\\users\\pc\\anaconda3\\lib\\cmd.py', 'PYMODULE'),
  ('bdb', 'c:\\users\\pc\\anaconda3\\lib\\bdb.py', 'PYMODULE'),
  ('opcode', 'c:\\users\\pc\\anaconda3\\lib\\opcode.py', 'PYMODULE'),
  ('dis', 'c:\\users\\pc\\anaconda3\\lib\\dis.py', 'PYMODULE'),
  ('codeop', 'c:\\users\\pc\\anaconda3\\lib\\codeop.py', 'PYMODULE'),
  ('code', 'c:\\users\\pc\\anaconda3\\lib\\code.py', 'PYMODULE'),
  ('glob', 'c:\\users\\pc\\anaconda3\\lib\\glob.py', 'PYMODULE'),
  ('shlex', 'c:\\users\\pc\\anaconda3\\lib\\shlex.py', 'PYMODULE'),
  ('importlib._bootstrap',
   'c:\\users\\pc\\anaconda3\\lib\\importlib\\_bootstrap.py',
   'PYMODULE'),
  ('importlib._bootstrap_external',
   'c:\\users\\pc\\anaconda3\\lib\\importlib\\_bootstrap_external.py',
   'PYMODULE'),
  ('importlib.machinery',
   'c:\\users\\pc\\anaconda3\\lib\\importlib\\machinery.py',
   'PYMODULE'),
  ('importlib.util',
   'c:\\users\\pc\\anaconda3\\lib\\importlib\\util.py',
   'PYMODULE'),
  ('importlib.abc',
   'c:\\users\\pc\\anaconda3\\lib\\importlib\\abc.py',
   'PYMODULE'),
  ('importlib',
   'c:\\users\\pc\\anaconda3\\lib\\importlib\\__init__.py',
   'PYMODULE'),
  ('pkgutil', 'c:\\users\\pc\\anaconda3\\lib\\pkgutil.py', 'PYMODULE'),
  ('xml', 'c:\\users\\pc\\anaconda3\\lib\\xml\\__init__.py', 'PYMODULE'),
  ('xml.sax.expatreader',
   'c:\\users\\pc\\anaconda3\\lib\\xml\\sax\\expatreader.py',
   'PYMODULE'),
  ('xml.sax.saxutils',
   'c:\\users\\pc\\anaconda3\\lib\\xml\\sax\\saxutils.py',
   'PYMODULE'),
  ('urllib.request',
   'c:\\users\\pc\\anaconda3\\lib\\urllib\\request.py',
   'PYMODULE'),
  ('getpass', 'c:\\users\\pc\\anaconda3\\lib\\getpass.py', 'PYMODULE'),
  ('nturl2path', 'c:\\users\\pc\\anaconda3\\lib\\nturl2path.py', 'PYMODULE'),
  ('ftplib', 'c:\\users\\pc\\anaconda3\\lib\\ftplib.py', 'PYMODULE'),
  ('netrc', 'c:\\users\\pc\\anaconda3\\lib\\netrc.py', 'PYMODULE'),
  ('http.cookiejar',
   'c:\\users\\pc\\anaconda3\\lib\\http\\cookiejar.py',
   'PYMODULE'),
  ('urllib.response',
   'c:\\users\\pc\\anaconda3\\lib\\urllib\\response.py',
   'PYMODULE'),
  ('urllib.error',
   'c:\\users\\pc\\anaconda3\\lib\\urllib\\error.py',
   'PYMODULE'),
  ('xml.sax',
   'c:\\users\\pc\\anaconda3\\lib\\xml\\sax\\__init__.py',
   'PYMODULE'),
  ('xml.sax.handler',
   'c:\\users\\pc\\anaconda3\\lib\\xml\\sax\\handler.py',
   'PYMODULE'),
  ('xml.sax._exceptions',
   'c:\\users\\pc\\anaconda3\\lib\\xml\\sax\\_exceptions.py',
   'PYMODULE'),
  ('xml.sax.xmlreader',
   'c:\\users\\pc\\anaconda3\\lib\\xml\\sax\\xmlreader.py',
   'PYMODULE'),
  ('xml.parsers',
   'c:\\users\\pc\\anaconda3\\lib\\xml\\parsers\\__init__.py',
   'PYMODULE'),
  ('xml.parsers.expat',
   'c:\\users\\pc\\anaconda3\\lib\\xml\\parsers\\expat.py',
   'PYMODULE'),
  ('plistlib', 'c:\\users\\pc\\anaconda3\\lib\\plistlib.py', 'PYMODULE'),
  ('platform', 'c:\\users\\pc\\anaconda3\\lib\\platform.py', 'PYMODULE'),
  ('token', 'c:\\users\\pc\\anaconda3\\lib\\token.py', 'PYMODULE'),
  ('tokenize', 'c:\\users\\pc\\anaconda3\\lib\\tokenize.py', 'PYMODULE'),
  ('urllib.parse',
   'c:\\users\\pc\\anaconda3\\lib\\urllib\\parse.py',
   'PYMODULE'),
  ('tempfile', 'c:\\users\\pc\\anaconda3\\lib\\tempfile.py', 'PYMODULE'),
  ('tty', 'c:\\users\\pc\\anaconda3\\lib\\tty.py', 'PYMODULE'),
  ('pydoc_data',
   'c:\\users\\pc\\anaconda3\\lib\\pydoc_data\\__init__.py',
   'PYMODULE'),
  ('pydoc_data.topics',
   'c:\\users\\pc\\anaconda3\\lib\\pydoc_data\\topics.py',
   'PYMODULE'),
  ('html.entities',
   'c:\\users\\pc\\anaconda3\\lib\\html\\entities.py',
   'PYMODULE'),
  ('html', 'c:\\users\\pc\\anaconda3\\lib\\html\\__init__.py', 'PYMODULE'),
  ('ipaddress', 'c:\\users\\pc\\anaconda3\\lib\\ipaddress.py', 'PYMODULE'),
  ('ssl', 'c:\\users\\pc\\anaconda3\\lib\\ssl.py', 'PYMODULE'),
  ('http.client', 'c:\\users\\pc\\anaconda3\\lib\\http\\client.py', 'PYMODULE'),
  ('mimetypes', 'c:\\users\\pc\\anaconda3\\lib\\mimetypes.py', 'PYMODULE'),
  ('socketserver',
   'c:\\users\\pc\\anaconda3\\lib\\socketserver.py',
   'PYMODULE'),
  ('http', 'c:\\users\\pc\\anaconda3\\lib\\http\\__init__.py', 'PYMODULE'),
  ('http.server', 'c:\\users\\pc\\anaconda3\\lib\\http\\server.py', 'PYMODULE'),
  ('optparse', 'c:\\users\\pc\\anaconda3\\lib\\optparse.py', 'PYMODULE'),
  ('uu', 'c:\\users\\pc\\anaconda3\\lib\\uu.py', 'PYMODULE'),
  ('quopri', 'c:\\users\\pc\\anaconda3\\lib\\quopri.py', 'PYMODULE'),
  ('email.feedparser',
   'c:\\users\\pc\\anaconda3\\lib\\email\\feedparser.py',
   'PYMODULE'),
  ('email.parser',
   'c:\\users\\pc\\anaconda3\\lib\\email\\parser.py',
   'PYMODULE'),
  ('email', 'c:\\users\\pc\\anaconda3\\lib\\email\\__init__.py', 'PYMODULE'),
  ('calendar', 'c:\\users\\pc\\anaconda3\\lib\\calendar.py', 'PYMODULE'),
  ('email._parseaddr',
   'c:\\users\\pc\\anaconda3\\lib\\email\\_parseaddr.py',
   'PYMODULE'),
  ('email.utils', 'c:\\users\\pc\\anaconda3\\lib\\email\\utils.py', 'PYMODULE'),
  ('email.errors',
   'c:\\users\\pc\\anaconda3\\lib\\email\\errors.py',
   'PYMODULE'),
  ('email.header',
   'c:\\users\\pc\\anaconda3\\lib\\email\\header.py',
   'PYMODULE'),
  ('email._policybase',
   'c:\\users\\pc\\anaconda3\\lib\\email\\_policybase.py',
   'PYMODULE'),
  ('email.base64mime',
   'c:\\users\\pc\\anaconda3\\lib\\email\\base64mime.py',
   'PYMODULE'),
  ('email.encoders',
   'c:\\users\\pc\\anaconda3\\lib\\email\\encoders.py',
   'PYMODULE'),
  ('email.charset',
   'c:\\users\\pc\\anaconda3\\lib\\email\\charset.py',
   'PYMODULE'),
  ('base64', 'c:\\users\\pc\\anaconda3\\lib\\base64.py', 'PYMODULE'),
  ('email._encoded_words',
   'c:\\users\\pc\\anaconda3\\lib\\email\\_encoded_words.py',
   'PYMODULE'),
  ('hashlib', 'c:\\users\\pc\\anaconda3\\lib\\hashlib.py', 'PYMODULE'),
  ('bisect', 'c:\\users\\pc\\anaconda3\\lib\\bisect.py', 'PYMODULE'),
  ('random', 'c:\\users\\pc\\anaconda3\\lib\\random.py', 'PYMODULE'),
  ('email.generator',
   'c:\\users\\pc\\anaconda3\\lib\\email\\generator.py',
   'PYMODULE'),
  ('email.iterators',
   'c:\\users\\pc\\anaconda3\\lib\\email\\iterators.py',
   'PYMODULE'),
  ('urllib', 'c:\\users\\pc\\anaconda3\\lib\\urllib\\__init__.py', 'PYMODULE'),
  ('email._header_value_parser',
   'c:\\users\\pc\\anaconda3\\lib\\email\\_header_value_parser.py',
   'PYMODULE'),
  ('email.headerregistry',
   'c:\\users\\pc\\anaconda3\\lib\\email\\headerregistry.py',
   'PYMODULE'),
  ('email.quoprimime',
   'c:\\users\\pc\\anaconda3\\lib\\email\\quoprimime.py',
   'PYMODULE'),
  ('email.contentmanager',
   'c:\\users\\pc\\anaconda3\\lib\\email\\contentmanager.py',
   'PYMODULE'),
  ('email.policy',
   'c:\\users\\pc\\anaconda3\\lib\\email\\policy.py',
   'PYMODULE'),
  ('email.message',
   'c:\\users\\pc\\anaconda3\\lib\\email\\message.py',
   'PYMODULE'),
  ('bz2', 'c:\\users\\pc\\anaconda3\\lib\\bz2.py', 'PYMODULE'),
  ('lzma', 'c:\\users\\pc\\anaconda3\\lib\\lzma.py', 'PYMODULE'),
  ('_compression',
   'c:\\users\\pc\\anaconda3\\lib\\_compression.py',
   'PYMODULE'),
  ('gzip', 'c:\\users\\pc\\anaconda3\\lib\\gzip.py', 'PYMODULE'),
  ('tarfile', 'c:\\users\\pc\\anaconda3\\lib\\tarfile.py', 'PYMODULE'),
  ('py_compile', 'c:\\users\\pc\\anaconda3\\lib\\py_compile.py', 'PYMODULE'),
  ('zipfile', 'c:\\users\\pc\\anaconda3\\lib\\zipfile.py', 'PYMODULE'),
  ('shutil', 'c:\\users\\pc\\anaconda3\\lib\\shutil.py', 'PYMODULE'),
  ('socket', 'c:\\users\\pc\\anaconda3\\lib\\socket.py', 'PYMODULE'),
  ('webbrowser', 'c:\\users\\pc\\anaconda3\\lib\\webbrowser.py', 'PYMODULE'),
  ('pydoc', 'c:\\users\\pc\\anaconda3\\lib\\pydoc.py', 'PYMODULE'),
  ('getopt', 'c:\\users\\pc\\anaconda3\\lib\\getopt.py', 'PYMODULE'),
  ('pdb', 'c:\\users\\pc\\anaconda3\\lib\\pdb.py', 'PYMODULE'),
  ('unittest.util',
   'c:\\users\\pc\\anaconda3\\lib\\unittest\\util.py',
   'PYMODULE'),
  ('unittest.result',
   'c:\\users\\pc\\anaconda3\\lib\\unittest\\result.py',
   'PYMODULE'),
  ('string', 'c:\\users\\pc\\anaconda3\\lib\\string.py', 'PYMODULE'),
  ('logging',
   'c:\\users\\pc\\anaconda3\\lib\\logging\\__init__.py',
   'PYMODULE'),
  ('unittest.case',
   'c:\\users\\pc\\anaconda3\\lib\\unittest\\case.py',
   'PYMODULE'),
  ('unittest.suite',
   'c:\\users\\pc\\anaconda3\\lib\\unittest\\suite.py',
   'PYMODULE'),
  ('unittest.loader',
   'c:\\users\\pc\\anaconda3\\lib\\unittest\\loader.py',
   'PYMODULE'),
  ('unittest.runner',
   'c:\\users\\pc\\anaconda3\\lib\\unittest\\runner.py',
   'PYMODULE'),
  ('unittest.main',
   'c:\\users\\pc\\anaconda3\\lib\\unittest\\main.py',
   'PYMODULE'),
  ('unittest.signals',
   'c:\\users\\pc\\anaconda3\\lib\\unittest\\signals.py',
   'PYMODULE'),
  ('unittest',
   'c:\\users\\pc\\anaconda3\\lib\\unittest\\__init__.py',
   'PYMODULE'),
  ('doctest', 'c:\\users\\pc\\anaconda3\\lib\\doctest.py', 'PYMODULE'),
  ('copy', 'c:\\users\\pc\\anaconda3\\lib\\copy.py', 'PYMODULE'),
  ('stat', 'c:\\users\\pc\\anaconda3\\lib\\stat.py', 'PYMODULE'),
  ('genericpath', 'c:\\users\\pc\\anaconda3\\lib\\genericpath.py', 'PYMODULE'),
  ('posixpath', 'c:\\users\\pc\\anaconda3\\lib\\posixpath.py', 'PYMODULE'),
  ('enum', 'c:\\users\\pc\\anaconda3\\lib\\enum.py', 'PYMODULE'),
  ('signal', 'c:\\users\\pc\\anaconda3\\lib\\signal.py', 'PYMODULE'),
  ('contextlib', 'c:\\users\\pc\\anaconda3\\lib\\contextlib.py', 'PYMODULE'),
  ('_threading_local',
   'c:\\users\\pc\\anaconda3\\lib\\_threading_local.py',
   'PYMODULE'),
  ('threading', 'c:\\users\\pc\\anaconda3\\lib\\threading.py', 'PYMODULE'),
  ('selectors', 'c:\\users\\pc\\anaconda3\\lib\\selectors.py', 'PYMODULE'),
  ('dummy_threading',
   'c:\\users\\pc\\anaconda3\\lib\\dummy_threading.py',
   'PYMODULE'),
  ('subprocess', 'c:\\users\\pc\\anaconda3\\lib\\subprocess.py', 'PYMODULE'),
  ('os', 'c:\\users\\pc\\anaconda3\\lib\\os.py', 'PYMODULE'),
  ('textwrap', 'c:\\users\\pc\\anaconda3\\lib\\textwrap.py', 'PYMODULE'),
  ('gettext', 'c:\\users\\pc\\anaconda3\\lib\\gettext.py', 'PYMODULE'),
  ('argparse', 'c:\\users\\pc\\anaconda3\\lib\\argparse.py', 'PYMODULE'),
  ('pprint', 'c:\\users\\pc\\anaconda3\\lib\\pprint.py', 'PYMODULE'),
  ('pickle', 'c:\\users\\pc\\anaconda3\\lib\\pickle.py', 'PYMODULE'),
  ('tracemalloc', 'c:\\users\\pc\\anaconda3\\lib\\tracemalloc.py', 'PYMODULE'),
  ('warnings', 'c:\\users\\pc\\anaconda3\\lib\\warnings.py', 'PYMODULE'),
  ('_dummy_thread',
   'c:\\users\\pc\\anaconda3\\lib\\_dummy_thread.py',
   'PYMODULE'),
  ('PyQt5.uic',
   'c:\\users\\pc\\anaconda3\\lib\\site-packages\\PyQt5\\uic\\__init__.py',
   'PYMODULE'),
  ('PyQt5.uic.objcreator',
   'c:\\users\\pc\\anaconda3\\lib\\site-packages\\PyQt5\\uic\\objcreator.py',
   'PYMODULE'),
  ('PyQt5.uic.exceptions',
   'c:\\users\\pc\\anaconda3\\lib\\site-packages\\PyQt5\\uic\\exceptions.py',
   'PYMODULE'),
  ('PyQt5.uic.Loader.loader',
   'c:\\users\\pc\\anaconda3\\lib\\site-packages\\PyQt5\\uic\\Loader\\loader.py',
   'PYMODULE'),
  ('PyQt5.uic.Loader',
   'c:\\users\\pc\\anaconda3\\lib\\site-packages\\PyQt5\\uic\\Loader\\__init__.py',
   'PYMODULE'),
  ('PyQt5.uic.Loader.qobjectcreator',
   'c:\\users\\pc\\anaconda3\\lib\\site-packages\\PyQt5\\uic\\Loader\\qobjectcreator.py',
   'PYMODULE'),
  ('PyQt5.uic.uiparser',
   'c:\\users\\pc\\anaconda3\\lib\\site-packages\\PyQt5\\uic\\uiparser.py',
   'PYMODULE'),
  ('PyQt5.uic.properties',
   'c:\\users\\pc\\anaconda3\\lib\\site-packages\\PyQt5\\uic\\properties.py',
   'PYMODULE'),
  ('PyQt5.uic.port_v3.ascii_upper',
   'c:\\users\\pc\\anaconda3\\lib\\site-packages\\PyQt5\\uic\\port_v3\\ascii_upper.py',
   'PYMODULE'),
  ('PyQt5.uic.port_v3',
   'c:\\users\\pc\\anaconda3\\lib\\site-packages\\PyQt5\\uic\\port_v3\\__init__.py',
   'PYMODULE'),
  ('PyQt5.uic.icon_cache',
   'c:\\users\\pc\\anaconda3\\lib\\site-packages\\PyQt5\\uic\\icon_cache.py',
   'PYMODULE'),
  ('xml.etree.ElementTree',
   'c:\\users\\pc\\anaconda3\\lib\\xml\\etree\\ElementTree.py',
   'PYMODULE'),
  ('xml.etree.ElementInclude',
   'c:\\users\\pc\\anaconda3\\lib\\xml\\etree\\ElementInclude.py',
   'PYMODULE'),
  ('xml.etree.cElementTree',
   'c:\\users\\pc\\anaconda3\\lib\\xml\\etree\\cElementTree.py',
   'PYMODULE'),
  ('xml.etree.ElementPath',
   'c:\\users\\pc\\anaconda3\\lib\\xml\\etree\\ElementPath.py',
   'PYMODULE'),
  ('xml.etree',
   'c:\\users\\pc\\anaconda3\\lib\\xml\\etree\\__init__.py',
   'PYMODULE'),
  ('PyQt5.uic.port_v2.string_io',
   'c:\\users\\pc\\anaconda3\\lib\\site-packages\\PyQt5\\uic\\port_v2\\string_io.py',
   'PYMODULE'),
  ('PyQt5.uic.port_v2',
   'c:\\users\\pc\\anaconda3\\lib\\site-packages\\PyQt5\\uic\\port_v2\\__init__.py',
   'PYMODULE'),
  ('PyQt5.uic.port_v3.string_io',
   'c:\\users\\pc\\anaconda3\\lib\\site-packages\\PyQt5\\uic\\port_v3\\string_io.py',
   'PYMODULE'),
  ('PyQt5.uic.Compiler.compiler',
   'c:\\users\\pc\\anaconda3\\lib\\site-packages\\PyQt5\\uic\\Compiler\\compiler.py',
   'PYMODULE'),
  ('PyQt5.uic.Compiler.qobjectcreator',
   'c:\\users\\pc\\anaconda3\\lib\\site-packages\\PyQt5\\uic\\Compiler\\qobjectcreator.py',
   'PYMODULE'),
  ('PyQt5.uic.port_v2.as_string',
   'c:\\users\\pc\\anaconda3\\lib\\site-packages\\PyQt5\\uic\\port_v2\\as_string.py',
   'PYMODULE'),
  ('PyQt5.uic.port_v3.as_string',
   'c:\\users\\pc\\anaconda3\\lib\\site-packages\\PyQt5\\uic\\port_v3\\as_string.py',
   'PYMODULE'),
  ('PyQt5.uic.Compiler.qtproxies',
   'c:\\users\\pc\\anaconda3\\lib\\site-packages\\PyQt5\\uic\\Compiler\\qtproxies.py',
   'PYMODULE'),
  ('PyQt5.uic.port_v2.proxy_base',
   'c:\\users\\pc\\anaconda3\\lib\\site-packages\\PyQt5\\uic\\port_v2\\proxy_base.py',
   'PYMODULE'),
  ('PyQt5.uic.Compiler.proxy_metaclass',
   'c:\\users\\pc\\anaconda3\\lib\\site-packages\\PyQt5\\uic\\Compiler\\proxy_metaclass.py',
   'PYMODULE'),
  ('PyQt5.uic.port_v3.proxy_base',
   'c:\\users\\pc\\anaconda3\\lib\\site-packages\\PyQt5\\uic\\port_v3\\proxy_base.py',
   'PYMODULE'),
  ('PyQt5.uic.Compiler.misc',
   'c:\\users\\pc\\anaconda3\\lib\\site-packages\\PyQt5\\uic\\Compiler\\misc.py',
   'PYMODULE'),
  ('PyQt5.uic.Compiler.indenter',
   'c:\\users\\pc\\anaconda3\\lib\\site-packages\\PyQt5\\uic\\Compiler\\indenter.py',
   'PYMODULE'),
  ('PyQt5.uic.Compiler',
   'c:\\users\\pc\\anaconda3\\lib\\site-packages\\PyQt5\\uic\\Compiler\\__init__.py',
   'PYMODULE'),
  ('PyQt5',
   'c:\\users\\pc\\anaconda3\\lib\\site-packages\\PyQt5\\__init__.py',
   'PYMODULE')])
